  0   0 255
  0   0 254
  0   1 254
  1   2 254
  1   3 254
  2   4 254
  2   4 254
  2   5 254
  3   6 254
  3   7 254
  4   8 254
  4   8 254
  4   9 254
  5  10 254
  5  11 254
  6  12 254
  6  12 254
  6  13 254
  7  14 254
  7  15 254
  8  16 254
  8  16 254
  8  17 254
  9  18 254
  9  19 254
 10  20 254
 10  20 254
 10  21 254
 11  22 254
 11  23 254
 12  24 254
 12  24 254
 12  25 254
 13  26 254
 13  27 254
 14  28 254
 14  28 254
 14  29 254
 15  30 254
 15  31 254
 16  31 254
 16  32 254
 16  33 254
 17  34 254
 17  35 254
 18  35 254
 18  36 254
 18  37 254
 19  38 254
 19  39 254
 20  39 254
 20  40 254
 20  41 254
 21  42 254
 21  43 254
 22  43 254
 22  44 254
 22  45 253
 23  46 253
 23  47 253
 24  47 253
 24  48 253
 24  49 253
 25  50 253
 25  50 253
 26  51 253
 26  52 253
 26  53 253
 27  54 253
 27  54 253
 28  55 253
 28  56 253
 28  57 253
 29  58 253
 29  58 253
 30  59 253
 30  60 253
 30  61 253
 31  61 253
 31  62 253
 31  63 252
 32  64 252
 32  65 252
 33  65 252
 33  66 252
 33  67 252
 34  68 252
 34  68 252
 35  69 252
 35  70 252
 35  71 252
 36  71 252
 36  72 252
 37  73 252
 37  74 252
 37  75 252
 38  75 252
 38  76 252
 39  77 251
 39  78 251
 39  78 251
 40  79 251
 40  80 251
 41  81 251
 41  81 251
 41  82 251
 42  83 251
 42  84 251
 43  84 251
 43  85 251
 43  86 251
 44  87 251
 44  87 251
 45  88 250
 45  89 250
 45  90 250
 46  90 250
 46  91 250
 47  92 250
 47  93 250
 47  93 250
 48  94 250
 48  95 250
 49  96 250
 49  96 250
 49  97 250
 50  98 250
 50  99 249
 50  99 249
 51 100 249
 51 101 249
 52 102 249
 52 102 249
 52 103 249
 53 104 249
 53 105 249
 54 105 249
 54 106 249
 54 107 249
 55 107 248
 55 108 248
 56 109 248
 56 110 248
 56 110 248
 57 111 248
 57 112 248
 58 113 248
 58 113 248
 58 114 248
 59 115 248
 59 115 247
 59 116 247
 60 117 247
 60 118 247
 61 118 247
 61 119 247
 61 120 247
 62 120 247
 62 121 247
 63 122 247
 63 122 246
 63 123 246
 64 124 246
 64 125 246
 65 125 246
 65 126 246
 65 127 246
 66 127 246
 66 128 246
 66 129 246
 67 129 245
 67 130 245
 68 131 245
 68 131 245
 68 132 245
 69 133 245
 69 134 245
 70 134 245
 70 135 245
 70 136 244
 71 136 244
 71 137 244
 71 138 244
 72 138 244
 72 139 244
 73 140 244
 73 140 244
 73 141 244
 74 142 243
 74 142 243
 75 143 243
 75 144 243
 75 144 243
 76 145 243
 76 146 243
 76 146 243
 77 147 242
 77 148 242
 78 148 242
 78 149 242
 78 150 242
 79 150 242
 79 151 242
 80 151 242
 80 152 241
 80 153 241
 81 153 241
 81 154 241
 81 155 241
 82 155 241
 82 156 241
 83 157 241
 83 157 240
 83 158 240
 84 158 240
 84 159 240
 84 160 240
 85 160 240
 85 161 240
 86 162 240
 86 162 239
 86 163 239
 87 163 239
 87 164 239
 87 165 239
 88 165 239
 88 166 239
 89 166 238
 89 167 238
 89 168 238
 90 168 238
 90 169 238
 90 169 238
 91 170 238
 91 171 237
 92 171 237
 92 172 237
 92 172 237
 93 173 237
 93 174 237
 93 174 237
 94 175 236
 94 175 236
 95 176 236
 95 177 236
 95 177 236
 96 178 236
 96 178 236
 96 179 235
 97 179 235
 97 180 235
 98 181 235
 98 181 235
 98 182 235
 99 182 234
 99 183 234
 99 183 234
100 184 234
100 184 234
101 185 234
101 186 233
101 186 233
102 187 233
102 187 233
102 188 233
103 188 233
103 189 233
103 189 232
104 190 232
104 190 232
105 191 232
105 191 232
105 192 232
106 193 231
106 193 231
106 194 231
107 194 231
107 195 231
107 195 231
108 196 230
108 196 230
109 197 230
109 197 230
109 198 230
110 198 229
110 199 229
110 199 229
111 200 229
111 200 229
111 201 229
112 201 228
112 202 228
113 202 228
113 203 228
113 203 228
114 204 228
114 204 227
114 205 227
115 205 227
115 205 227
115 206 227
116 206 226
116 207 226
116 207 226
117 208 226
117 208 226
118 209 226
118 209 225
118 210 225
119 210 225
119 211 225
119 211 225
120 211 224
120 212 224
120 212 224
121 213 224
121 213 224
121 214 223
122 214 223
122 215 223
122 215 223
123 215 223
123 216 223
124 216 222
124 217 222
124 217 222
125 217 222
125 218 222
125 218 221
126 219 221
126 219 221
126 220 221
127 220 221
127 220 220
127 221 220
128 221 220
128 222 220
128 222 220
129 222 219
129 223 219
129 223 219
130 223 219
130 224 219
130 224 218
131 225 218
131 225 218
131 225 218
132 226 217
132 226 217
133 226 217
133 227 217
133 227 217
134 228 216
134 228 216
134 228 216
135 229 216
135 229 216
135 229 215
136 230 215
136 230 215
136 230 215
137 231 215
137 231 214
137 231 214
138 232 214
138 232 214
138 232 213
139 233 213
139 233 213
139 233 213
140 234 213
140 234 212
140 234 212
141 235 212
141 235 212
141 235 211
142 236 211
142 236 211
142 236 211
143 236 211
143 237 210
143 237 210
144 237 210
144 238 210
144 238 209
145 238 209
145 238 209
145 239 209
146 239 208
146 239 208
146 240 208
147 240 208
147 240 208
147 240 207
148 241 207
148 241 207
148 241 207
149 241 206
149 242 206
149 242 206
150 242 206
150 242 205
150 243 205
150 243 205
151 243 205
151 243 205
151 244 204
152 244 204
152 244 204
152 244 204
153 244 203
153 245 203
153 245 203
154 245 203
154 245 202
154 246 202
155 246 202
155 246 202
155 246 201
156 246 201
156 247 201
156 247 201
157 247 200
157 247 200
157 247 200
158 248 200
158 248 199
158 248 199
158 248 199
159 248 199
159 248 198
159 249 198
160 249 198
160 249 198
160 249 197
161 249 197
161 249 197
161 250 197
162 250 196
162 250 196
162 250 196
162 250 196
163 250 195
163 250 195
163 251 195
164 251 195
164 251 194
164 251 194
165 251 194
165 251 194
165 251 193
166 252 193
166 252 193
166 252 193
166 252 192
167 252 192
167 252 192
167 252 191
168 252 191
168 252 191
168 253 191
169 253 190
169 253 190
169 253 190
169 253 190
170 253 189
170 253 189
170 253 189
171 253 189
171 253 188
171 253 188
172 253 188
172 254 187
172 254 187
172 254 187
173 254 187
173 254 186
173 254 186
174 254 186
174 254 186
174 254 185
174 254 185
175 254 185
175 254 184
175 254 184
176 254 184
176 254 184
176 254 183
177 254 183
177 254 183
177 254 182
177 254 182
178 254 182
178 254 182
178 254 181
179 254 181
179 254 181
179 254 181
179 254 180
180 254 180
180 254 180
180 254 179
181 254 179
181 254 179
181 254 179
181 254 178
182 254 178
182 254 178
182 254 177
182 254 177
183 254 177
183 254 177
183 254 176
184 254 176
184 254 176
184 254 175
184 254 175
185 254 175
185 254 174
185 254 174
186 254 174
186 254 174
186 254 173
186 254 173
187 254 173
187 254 172
187 254 172
187 254 172
188 253 172
188 253 171
188 253 171
189 253 171
189 253 170
189 253 170
189 253 170
190 253 169
190 253 169
190 253 169
190 253 169
191 253 168
191 252 168
191 252 168
191 252 167
192 252 167
192 252 167
192 252 166
193 252 166
193 252 166
193 252 166
193 251 165
194 251 165
194 251 165
194 251 164
194 251 164
195 251 164
195 251 163
195 250 163
195 250 163
196 250 162
196 250 162
196 250 162
196 250 162
197 250 161
197 249 161
197 249 161
197 249 160
198 249 160
198 249 160
198 249 159
198 248 159
199 248 159
199 248 158
199 248 158
199 248 158
200 248 158
200 247 157
200 247 157
200 247 157
201 247 156
201 247 156
201 246 156
201 246 155
202 246 155
202 246 155
202 246 154
202 245 154
203 245 154
203 245 153
203 245 153
203 244 153
204 244 152
204 244 152
204 244 152
204 244 151
205 243 151
205 243 151
205 243 150
205 243 150
205 242 150
206 242 150
206 242 149
206 242 149
206 241 149
207 241 148
207 241 148
207 241 148
207 240 147
208 240 147
208 240 147
208 240 146
208 239 146
208 239 146
209 239 145
209 238 145
209 238 145
209 238 144
210 238 144
210 237 144
210 237 143
210 237 143
211 236 143
211 236 142
211 236 142
211 236 142
211 235 141
212 235 141
212 235 141
212 234 140
212 234 140
213 234 140
213 233 139
213 233 139
213 233 139
213 232 138
214 232 138
214 232 138
214 231 137
214 231 137
215 231 137
215 230 136
215 230 136
215 230 136
215 229 135
216 229 135
216 229 135
216 228 134
216 228 134
216 228 134
217 227 133
217 227 133
217 226 133
217 226 132
217 226 132
218 225 131
218 225 131
218 225 131
218 224 130
219 224 130
219 223 130
219 223 129
219 223 129
219 222 129
220 222 128
220 222 128
220 221 128
220 221 127
220 220 127
221 220 127
221 220 126
221 219 126
221 219 126
221 218 125
222 218 125
222 217 125
222 217 124
222 217 124
222 216 124
223 216 123
223 215 123
223 215 122
223 215 122
223 214 122
223 214 121
224 213 121
224 213 121
224 212 120
224 212 120
224 211 120
225 211 119
225 211 119
225 210 119
225 210 118
225 209 118
226 209 118
226 208 117
226 208 117
226 207 116
226 207 116
226 206 116
227 206 115
227 205 115
227 205 115
227 205 114
227 204 114
228 204 114
228 203 113
228 203 113
228 202 113
228 202 112
228 201 112
229 201 111
229 200 111
229 200 111
229 199 110
229 199 110
229 198 110
230 198 109
230 197 109
230 197 109
230 196 108
230 196 108
231 195 107
231 195 107
231 194 107
231 194 106
231 193 106
231 193 106
232 192 105
232 191 105
232 191 105
232 190 104
232 190 104
232 189 103
233 189 103
233 188 103
233 188 102
233 187 102
233 187 102
233 186 101
233 186 101
234 185 101
234 184 100
234 184 100
234 183  99
234 183  99
234 182  99
235 182  98
235 181  98
235 181  98
235 180  97
235 179  97
235 179  96
236 178  96
236 178  96
236 177  95
236 177  95
236 176  95
236 175  94
236 175  94
237 174  93
237 174  93
237 173  93
237 172  92
237 172  92
237 171  92
237 171  91
238 170  91
238 169  90
238 169  90
238 168  90
238 168  89
238 167  89
238 166  89
239 166  88
239 165  88
239 165  87
239 164  87
239 163  87
239 163  86
239 162  86
240 162  86
240 161  85
240 160  85
240 160  84
240 159  84
240 158  84
240 158  83
240 157  83
241 157  83
241 156  82
241 155  82
241 155  81
241 154  81
241 153  81
241 153  80
241 152  80
242 151  80
242 151  79
242 150  79
242 150  78
242 149  78
242 148  78
242 148  77
242 147  77
243 146  76
243 146  76
243 145  76
243 144  75
243 144  75
243 143  75
243 142  74
243 142  74
244 141  73
244 140  73
244 140  73
244 139  72
244 138  72
244 138  71
244 137  71
244 136  71
244 136  70
245 135  70
245 134  70
245 134  69
245 133  69
245 132  68
245 131  68
245 131  68
245 130  67
245 129  67
246 129  66
246 128  66
246 127  66
246 127  65
246 126  65
246 125  65
246 125  64
246 124  64
246 123  63
246 122  63
247 122  63
247 121  62
247 120  62
247 120  61
247 119  61
247 118  61
247 118  60
247 117  60
247 116  59
247 115  59
248 115  59
248 114  58
248 113  58
248 113  58
248 112  57
248 111  57
248 110  56
248 110  56
248 109  56
248 108  55
248 107  55
249 107  54
249 106  54
249 105  54
249 105  53
249 104  53
249 103  52
249 102  52
249 102  52
249 101  51
249 100  51
249  99  50
249  99  50
250  98  50
250  97  49
250  96  49
250  96  49
250  95  48
250  94  48
250  93  47
250  93  47
250  92  47
250  91  46
250  90  46
250  90  45
250  89  45
250  88  45
251  87  44
251  87  44
251  86  43
251  85  43
251  84  43
251  84  42
251  83  42
251  82  41
251  81  41
251  81  41
251  80  40
251  79  40
251  78  39
251  78  39
251  77  39
252  76  38
252  75  38
252  75  37
252  74  37
252  73  37
252  72  36
252  71  36
252  71  35
252  70  35
252  69  35
252  68  34
252  68  34
252  67  33
252  66  33
252  65  33
252  65  32
252  64  32
252  63  31
253  62  31
253  61  31
253  61  30
253  60  30
253  59  30
253  58  29
253  58  29
253  57  28
253  56  28
253  55  28
253  54  27
253  54  27
253  53  26
253  52  26
253  51  26
253  50  25
253  50  25
253  49  24
253  48  24
253  47  24
253  47  23
253  46  23
253  45  22
254  44  22
254  43  22
254  43  21
254  42  21
254  41  20
254  40  20
254  39  20
254  39  19
254  38  19
254  37  18
254  36  18
254  35  18
254  35  17
254  34  17
254  33  16
254  32  16
254  31  16
254  31  15
254  30  15
254  29  14
254  28  14
254  28  14
254  27  13
254  26  13
254  25  12
254  24  12
254  24  12
254  23  11
254  22  11
254  21  10
254  20  10
254  20  10
254  19   9
254  18   9
254  17   8
254  16   8
254  16   8
254  15   7
254  14   7
254  13   6
254  12   6
254  12   6
254  11   5
254  10   5
254   9   4
254   8   4
254   8   4
254   7   3
254   6   3
254   5   2
254   4   2
254   4   2
254   3   1
254   2   1
254   1   0
254   0   0
255   0   0
0     0   0